ASA-COWY, Fall 2024
…
.panel1-bump-auto[

``` r
library(tidyverse)
library(ggbump)

*life_exp_rank_2020
```
]
 
.panel2-bump-auto[

```
## # A tibble: 60 × 7
##    country continent  year lifeExp      pop gdpPercap life_exp_rank
##    <fct>   <fct>     <int>   <dbl>    <int>     <dbl>         <dbl>
##  1 Canada  Americas   1952    68.8 14785584    11367.             2
##  2 Canada  Americas   1957    70.0 17010154    12490.             2
##  3 Canada  Americas   1962    71.3 18985849    13462.             1
##  4 Canada  Americas   1967    72.1 20819767    16077.             1
##  5 Canada  Americas   1972    72.9 22284500    18971.             1
##  6 Canada  Americas   1977    74.2 23796400    22091.             1
##  7 Canada  Americas   1982    75.8 25201900    22899.             1
##  8 Canada  Americas   1987    76.9 26549700    26627.             1
##  9 Canada  Americas   1992    78.0 28523502    26343.             1
## 10 Canada  Americas   1997    78.6 30305843    28955.             2
## # ℹ 50 more rows
```
…
count: false
 
### Step 0. use base ggplot2, compute before plotting
.panel1-step0-auto[

``` r
*donor
```
]
 
.panel2-step0-auto[

```
## # A tibble: 161 × 3
##    Default Choice decision 
##    <chr>   <chr>  <fct>    
##  1 opt-in  donor  donor (1)
##  2 opt-in  donor  donor (1)
##  3 opt-in  donor  donor (1)
##  4 opt-in  donor  donor (1)
##  5 opt-in  donor  donor (1)
##  6 opt-in  donor  donor (1)
##  7 opt-in  donor  donor (1)
##  8 opt-in  donor  donor (1)
##  9 opt-in  donor  donor (1)
## 10 opt-in  donor  donor (1)
## # ℹ 151 more rows
```
…
*donor
```
]
 
.panel2-step0-auto[

```
## # A tibble: 161 × 3
##    Default Choice decision 
##    <chr>   <chr>  <fct>    
##  1 opt-in  donor  donor (1)
##  2 opt-in  donor  donor (1)
##  3 opt-in  donor  donor (1)
##  4 opt-in  donor  donor (1)
##  5 opt-in  donor  donor (1)
##  6 opt-in  donor  donor (1)
##  7 opt-in  donor  donor (1)
##  8 opt-in  donor  donor (1)
##  9 opt-in  donor  donor (1)
## 10 opt-in  donor  donor (1)
## # ℹ 151 more rows
```
…
count: false

```
## # A tibble: 161 × 3
##    Default Choice decision 
##    <chr>   <chr>  <fct>    
##  1 opt-in  donor  donor (1)
##  2 opt-in  donor  donor (1)
##  3 opt-in  donor  donor (1)
##  4 opt-in  donor  donor (1)
##  5 opt-in  donor  donor (1)
##  6 opt-in  donor  donor (1)
##  7 opt-in  donor  donor (1)
##  8 opt-in  donor  donor (1)
##  9 opt-in  donor  donor (1)
## 10 opt-in  donor  donor (1)
## # ℹ 151 more rows
```
…
```
## [1] "StatSupport <- ggproto(`_class` = \"StatSupport\","           
## [2] "                       `_inherit` = ggplot2::Stat,"           
## [3] "                       compute_panel = compute_panel_support,"
## [4] "                       required_aes = \"x\")"
```

---

count: false

.panel1-wp_prop_poem_small-auto[

```
## # A tibble: 161 × 3
##    Default Choice decision 
##    <chr>   <chr>  <fct>    
##  1 opt-in  donor  donor (1)
##  2 opt-in  donor  donor (1)
##  3 opt-in  donor  donor (1)
##  4 opt-in  donor  donor (1)
##  5 opt-in  donor  donor (1)
##  6 opt-in  donor  donor (1)
##  7 opt-in  donor  donor (1)
##  8 opt-in  donor  donor (1)
##  9 opt-in  donor  donor (1)
## 10 opt-in  donor  donor (1)
## # ℹ 151 more rows
```
…
