another experiment
…
library(ggregions)
library(tidyverse)

# ref data as usual
ref_data_us <- usmapdata::us_map() |> 
  select(state_name = full, state_abbr = abbr, state_fips = fips, geometry = geom)

ref_data <- ref_data_us
  
data0 <- ref_data_us |> sf::st_drop_geometry() 
data0$standard <- data0[,1]
data0 |> pivot_longer(cols = -standard)

## # A tibble: 156 × 3
##    standard name       value   
##    <chr>    <chr>      <chr>   
##  1 Alaska   state_name Alaska  
##  2 Alaska   state_abbr AK      
##  3 Alaska   state_fips 02      
##  4 Alabama  state_name Alabama 
##  5 Alabama  state_abbr AL      
##  6 Alabama  state_fips 01      
##  7 Arkansas state_name Arkansas
##  8 Arkansas state_abbr AR      
##  9 Arkansas state_fips 05      
## 10 Arizona  state_name Arizona 
## # ℹ 146 more rows
…
