legendry
…
``` r
library(tidyverse)

*tibble(hour = 1:24,
*      hour_pretty = rep(1:12, 2) |>
*        paste(c(rep("AM", 11), "noon",
*              c(rep("PM", 11), "midnight"))) |>
*        str_remove("12 "))
```
]
 
.panel2-wheel-auto[

```
## # A tibble: 24 × 2
##     hour hour_pretty
##    <int> <chr>      
##  1     1 1 AM       
##  2     2 2 AM       
##  3     3 3 AM       
##  4     4 4 AM       
##  5     5 5 AM       
##  6     6 6 AM       
##  7     7 7 AM       
##  8     8 8 AM       
##  9     9 9 AM       
## 10    10 10 AM      
## # ℹ 14 more rows
```
…
