easy geom recipes: compute_group
…
compute_group_lm_fitted <- function(data, scales){
  model<-lm(formula= y ~ x, data = data)
  data |> 
    mutate(y = model$fitted.values)
}

Step 1b. test out the function

penguins |>
  # select to explicitly state the x and y inputs
  select(x = bill_depth_mm, y = bill_length_mm)|>
  compute_group_lm_fitted()

# A tibble: 333 × 2
       x     y
   <dbl> <dbl>
 1  18.7  43.0
 2  17.4  43.8
 3  18    43.5
 4  19.3  42.6
 5  20.6  41.8
 6  17.8  43.6
 7  19.6  42.4
 8  17.6  43.7
 9  21.2  41.4
10  21.1  41.5
# ℹ 323 more rows
…
