or pyramid
…
count: false

.panel1-the_chunk-auto[

``` r
*oregon_population_pyramid_data
```
]
 
.panel2-the_chunk-auto[

```
# A tibble: 1,296 × 4
   county    age   gender percent
   <chr>     <chr> <chr>    <dbl>
 1 Baker     0-4   Men     0.0260
 2 Benton    0-4   Men     0.0194
 3 Clackamas 0-4   Men     0.0258
 4 Clatsop   0-4   Men     0.0270
 5 Columbia  0-4   Men     0.0278
 6 Coos      0-4   Men     0.0220
 7 Crook     0-4   Men     0.0253
 8 Curry     0-4   Men     0.0149
 9 Deschutes 0-4   Men     0.0245
10 Douglas   0-4   Men     0.0260
# ℹ 1,286 more rows
```
…
---
count: false

.panel1-the_chunk-auto[

``` r
oregon_population_pyramid_data %>%
* filter(county == "Baker")
```
]
 
.panel2-the_chunk-auto[

```
# A tibble: 36 × 4
   county age   gender percent
   <chr>  <chr> <chr>    <dbl>
 1 Baker  0-4   Men     0.0260
 2 Baker  5-9   Men     0.0232
 3 Baker  10-14 Men     0.0424
 4 Baker  15-19 Men     0.0227
 5 Baker  20-24 Men     0.0229
 6 Baker  25-29 Men     0.0276
 7 Baker  30-34 Men     0.0321
 8 Baker  35-39 Men     0.0247
 9 Baker  40-44 Men     0.0366
10 Baker  45-49 Men     0.0287
# ℹ 26 more rows
```
…
