american
…
---
count: false

.panel1-the_chunk-auto[

``` r
library(ggcirclepack)
*songs
```
]
 
.panel2-the_chunk-auto[

```
# A tibble: 2,429 × 8
   season    week                    order contestant        song    artist song_theme result
   <chr>     <chr>                   <dbl> <chr>             <chr>   <chr>  <chr>      <chr> 
 1 Season_01 20020618_top_30_group_1     1 Tamyra Gray       And I … Jenni… <NA>       Advan…
 2 Season_01 20020618_top_30_group_1     2 Jim Verraros      When I… Doris… <NA>       Advan…
 3 Season_01 20020618_top_30_group_1     3 Adriel Herrera    I'll Be Edwin… <NA>       Elimi…
 4 Season_01 20020618_top_30_group_1     4 Rodesia Eaves     Daydre… The M… <NA>       Elimi…
 5 Season_01 20020618_top_30_group_1     5 Natalie Burge     Crazy   Patsy… <NA>       Elimi…
 6 Season_01 20020618_top_30_group_1     6 Brad Estrin       Just O… James… <NA>       Elimi…
 7 Season_01 20020618_top_30_group_1     7 Ryan Starr        The Fr… The K… <NA>       Advan…
 8 Season_01 20020618_top_30_group_1     8 Justinn Waddell   When a… Percy… <NA>       Elimi…
 9 Season_01 20020618_top_30_group_1     9 Kelli Glover      I Will… Dolly… <NA>       Wild …
10 Season_01 20020618_top_30_group_1    10 Christopher Aaron Still … Brian… <NA>       Wild …
# ℹ 2,419 more rows
```
…
