american-idol
…
---
count: false

.panel1-the_chunk-auto[

``` r
library(ggcirclepack)
*songs
```
]
 
.panel2-the_chunk-auto[

```
# A tibble: 2,429 × 8
   season    week               order contestant song  artist song_theme result
   <chr>     <chr>              <dbl> <chr>      <chr> <chr>  <chr>      <chr> 
 1 Season_01 20020618_top_30_g…     1 Tamyra Gr… And … Jenni… <NA>       Advan…
 2 Season_01 20020618_top_30_g…     2 Jim Verra… When… Doris… <NA>       Advan…
 3 Season_01 20020618_top_30_g…     3 Adriel He… I'll… Edwin… <NA>       Elimi…
 4 Season_01 20020618_top_30_g…     4 Rodesia E… Dayd… The M… <NA>       Elimi…
 5 Season_01 20020618_top_30_g…     5 Natalie B… Crazy Patsy… <NA>       Elimi…
 6 Season_01 20020618_top_30_g…     6 Brad Estr… Just… James… <NA>       Elimi…
 7 Season_01 20020618_top_30_g…     7 Ryan Starr The … The K… <NA>       Advan…
 8 Season_01 20020618_top_30_g…     8 Justinn W… When… Percy… <NA>       Elimi…
 9 Season_01 20020618_top_30_g…     9 Kelli Glo… I Wi… Dolly… <NA>       Wild …
10 Season_01 20020618_top_30_g…    10 Christoph… Stil… Brian… <NA>       Wild …
# ℹ 2,419 more rows
```
…
```
# A tibble: 56 × 8
   season    week               order contestant song  artist song_theme result
   <chr>     <chr>              <dbl> <chr>      <chr> <chr>  <chr>      <chr> 
 1 Season_01 20020625_top_30_g…     2 Gil Sinuet Ribb… Stevi… <NA>       Elimi…
 2 Season_01 20020625_top_30_g…    10 Justin Gu… Ribb… Stevi… <NA>       Advan…
 3 Season_01 20020702_top_30_g…     9 Khaleef C… My C… Stevi… <NA>       Elimi…
 4 Season_01 20020710_wildcard…     4 R. J. Hel… Late… Stevi… <NA>       Advan…
 5 Season_01 20020716_top_10_p…     1 Ryan Starr If Y… Stevi… <NA>       Safe  
 6 Season_01 20020716_top_10_p…     6 Justin Gu… For … Stevi… <NA>       Safe  
 7 Season_01 20020716_top_10_p…     9 AJ Gil     My C… Stevi… <NA>       Safe  
 8 Season_01 20020730_top_7_fi…     6 R. J. Hel… Supe… Stevi… <NA>       Safe  
 9 Season_02 20030204_top_32_g…     3 J.D. Adams All … Stevi… <NA>       Elimi…
10 Season_02 20030204_top_32_g…     7 Charles G… Over… Stevi… <NA>       Advan…
# ℹ 46 more rows
```
…
