A minimal flipbook
…
.panel2-my_cars-auto[

```
[1] 18
```

```
[1] 9
```

```
# A tibble: 48 × 12
   state  state…¹ `1997` `1998` `1999` `2000` `2001` `2002` `2003` `2004` `2005`
   <chr>  <chr>    <int>  <int>  <int>  <int>  <int>  <int>  <int>  <int>  <int>
 1 Alaba… AL          22     23     26     27     NA     NA     47     NA     NA
 2 Arizo… AZ          34     36     38     37     37     43     43     NA     NA
 3 Arkan… AR          24     29     34     36     NA     NA     36     42     NA
 4 Calif… CA         142    148    151     NA     NA     NA    160     NA    200
 5 Color… CO          29     27     29     42     45     NA     NA     NA     42
 6 Conne… CT           2      2      2      4      6      8      8     NA     NA
 7 Delaw… DE          14     13     14     16     17     26     31     NA     NA
 8 Flori… FL         874    980   1043   1069   1102   1133   1133     NA   1133
 9 Georg… GA          31     37     49     55     61     73     81     NA     82
10 Idaho  ID          84     92     95    113    113    128     NA     NA     NA
# … with 38 more rows, 1 more variable: `2006` <int>, and abbreviated variable
#   name ¹​state_abbr
```
…
.panel2-my_cars-auto[

```
[1] 18
```

```
[1] 9
```

```
# A tibble: 480 × 4
   state   state_abbr year  num_pairs
   <chr>   <chr>      <chr>     <int>
 1 Alabama AL         1997         22
 2 Alabama AL         1998         23
 3 Alabama AL         1999         26
 4 Alabama AL         2000         27
 5 Alabama AL         2001         NA
 6 Alabama AL         2002         NA
 7 Alabama AL         2003         47
 8 Alabama AL         2004         NA
 9 Alabama AL         2005         NA
10 Alabama AL         2006         77
# … with 470 more rows
```
…
---

count: false

.panel1-my_cars2-auto[

```r
*dcldata::example_acs_1
```
]
 
.panel2-my_cars2-auto[

```
# A tibble: 156 × 4
   geoid name     variable    estimate
   <chr> <chr>    <chr>          <dbl>
 1 01    Alabama  pop_housed   4731852
 2 01    Alabama  pop_renter   1434765
 3 01    Alabama  median_rent      747
 4 02    Alaska   pop_housed    710743
 5 02    Alaska   pop_renter    241484
 6 02    Alaska   median_rent     1200
 7 04    Arizona  pop_housed   6656124
 8 04    Arizona  pop_renter   2460534
 9 04    Arizona  median_rent      972
10 05    Arkansas pop_housed   2894098
# … with 146 more rows
```
…
.panel1-my_cars2-auto[

```r
dcldata::example_acs_1 %>%
* pivot_wider(names_from = variable,
*             values_from = estimate)
```
]
 
.panel2-my_cars2-auto[

```
# A tibble: 52 × 5
   geoid name                 pop_housed pop_renter median_rent
   <chr> <chr>                     <dbl>      <dbl>       <dbl>
 1 01    Alabama                 4731852    1434765         747
 2 02    Alaska                   710743     241484        1200
 3 04    Arizona                 6656124    2460534         972
 4 05    Arkansas                2894098     965690         709
 5 06    California             38168482   17066023        1358
 6 08    Colorado                5318396    1782975        1125
 7 09    Connecticut             3478451    1053739        1123
 8 10    Delaware                 918625     255558        1076
 9 11    District of Columbia     632449     354285        1424
10 12    Florida                19847798    7099078        1077
# … with 42 more rows
```
…
dcldata::example_gymnastics_3 %>%
* pivot_longer(
*   cols = !country,
*   names_to = c("event", "year", "gender"),
*   names_sep = "_",
*   values_to = "score"
* )
```
]
 
.panel2-my_cars5-auto[

```
# A tibble: 24 × 5
   country       event year  gender score
   <chr>         <chr> <chr> <chr>  <dbl>
 1 United States vault 2012  f       48.1
 2 United States vault 2012  m       46.6
 3 United States vault 2016  f       46.9
 4 United States vault 2016  m       45.9
 5 United States floor 2012  f       45.4
 6 United States floor 2012  m       45.3
 7 United States floor 2016  f       46.0
 8 United States floor 2016  m       43.8
 9 Russia        vault 2012  f       46.4
10 Russia        vault 2012  m       46.9
# … with 14 more rows
```
…
.panel2-my_cars6-auto[

```
# A tibble: 48 × 4
   history trial name    value
     <int> <chr> <chr>   <dbl>
 1       1 t1    outcome  0   
 2       1 t1    prob     0.75
 3       1 t2    outcome  0   
 4       1 t2    prob     0.75
 5       1 t3    outcome  0   
 6       1 t3    prob     0.75
 7       2 t1    outcome  0   
 8       2 t1    prob     0.75
 9       2 t2    outcome  0   
10       2 t2    prob     0.75
# … with 38 more rows
```
…
.panel2-my_cars6-auto[

```
# A tibble: 24 × 4
   history trial outcome  prob
     <int> <chr>   <dbl> <dbl>
 1       1 t1          0  0.75
 2       1 t2          0  0.75
 3       1 t3          0  0.75
 4       2 t1          0  0.75
 5       2 t2          0  0.75
 6       2 t3          1  0.25
 7       3 t1          0  0.75
 8       3 t2          1  0.25
 9       3 t3          0  0.75
10       4 t1          0  0.75
# … with 14 more rows
```
…
.panel2-my_cars6-auto[

```
# A tibble: 24 × 4
   history trial outcome  prob
     <int> <chr>   <dbl> <dbl>
 1       1 t1          0  0.75
 2       1 t2          0  0.75
 3       1 t3          0  0.75
 4       2 t1          0  0.75
 5       2 t2          0  0.75
 6       2 t3          1  0.25
 7       3 t1          0  0.75
 8       3 t2          1  0.25
 9       3 t3          0  0.75
10       4 t1          0  0.75
# … with 14 more rows
```
…
```r
anscombe %>%
* pivot_longer(
*   everything(),
*   cols_vary = "slowest",
*   names_to = c(".value", "set"),
*   names_pattern = "(.)(.)"
* )
```
]
 
.panel2-anscombe-auto[

```
# A tibble: 44 × 3
   set       x     y
   <chr> <dbl> <dbl>
 1 1        10  8.04
 2 1         8  6.95
 3 1        13  7.58
 4 1         9  8.81
 5 1        11  8.33
 6 1        14  9.96
 7 1         6  7.24
 8 1         4  4.26
 9 1        12 10.8 
10 1         7  4.82
# … with 34 more rows
```
…
*billboard
```
]
 
.panel2-anscombe-auto[

```
# A tibble: 317 × 79
   artist track date.ent…¹   wk1   wk2   wk3   wk4   wk5   wk6   wk7   wk8   wk9
   <chr>  <chr> <date>     <dbl> <dbl> <dbl> <dbl> <dbl> <dbl> <dbl> <dbl> <dbl>
 1 2 Pac  Baby… 2000-02-26    87    82    72    77    87    94    99    NA    NA
 2 2Ge+h… The … 2000-09-02    91    87    92    NA    NA    NA    NA    NA    NA
 3 3 Doo… Kryp… 2000-04-08    81    70    68    67    66    57    54    53    51
 4 3 Doo… Loser 2000-10-21    76    76    72    69    67    65    55    59    62
 5 504 B… Wobb… 2000-04-15    57    34    25    17    17    31    36    49    53
 6 98^0   Give… 2000-08-19    51    39    34    26    26    19     2     2     3
 7 A*Tee… Danc… 2000-07-08    97    97    96    95   100    NA    NA    NA    NA
 8 Aaliy… I Do… 2000-01-29    84    62    51    41    38    35    35    38    38
 9 Aaliy… Try … 2000-03-18    59    53    38    28    21    18    16    14    12
10 Adams… Open… 2000-08-26    76    76    74    69    68    67    61    58    57
# … with 307 more rows, 67 more variables: wk10 <dbl>, wk11 <dbl>, wk12 <dbl>,
#   wk13 <dbl>, wk14 <dbl>, wk15 <dbl>, wk16 <dbl>, wk17 <dbl>, wk18 <dbl>,
#   wk19 <dbl>, wk20 <dbl>, wk21 <dbl>, wk22 <dbl>, wk23 <dbl>, wk24 <dbl>,
#   wk25 <dbl>, wk26 <dbl>, wk27 <dbl>, wk28 <dbl>, wk29 <dbl>, wk30 <dbl>,
#   wk31 <dbl>, wk32 <dbl>, wk33 <dbl>, wk34 <dbl>, wk35 <dbl>, wk36 <dbl>,
#   wk37 <dbl>, wk38 <dbl>, wk39 <dbl>, wk40 <dbl>, wk41 <dbl>, wk42 <dbl>,
#   wk43 <dbl>, wk44 <dbl>, wk45 <dbl>, wk46 <dbl>, wk47 <dbl>, wk48 <dbl>, …
```
…
billboard %>%
* pivot_longer(
*   cols = starts_with("wk"),
*   names_to = "week",
*   names_prefix = "wk",
*   values_to = "rank",
*   values_drop_na = TRUE
* )
```
]
 
.panel2-anscombe-auto[

```
# A tibble: 5,307 × 5
   artist  track                   date.entered week   rank
   <chr>   <chr>                   <date>       <chr> <dbl>
 1 2 Pac   Baby Don't Cry (Keep... 2000-02-26   1        87
 2 2 Pac   Baby Don't Cry (Keep... 2000-02-26   2        82
 3 2 Pac   Baby Don't Cry (Keep... 2000-02-26   3        72
 4 2 Pac   Baby Don't Cry (Keep... 2000-02-26   4        77
 5 2 Pac   Baby Don't Cry (Keep... 2000-02-26   5        87
 6 2 Pac   Baby Don't Cry (Keep... 2000-02-26   6        94
 7 2 Pac   Baby Don't Cry (Keep... 2000-02-26   7        99
 8 2Ge+her The Hardest Part Of ... 2000-09-02   1        91
 9 2Ge+her The Hardest Part Of ... 2000-09-02   2        87
10 2Ge+her The Hardest Part Of ... 2000-09-02   3        92
# … with 5,297 more rows
```
…
*who
```
]
 
.panel2-anscombe-auto[

```
# A tibble: 7,240 × 60
   country     iso2  iso3   year new_s…¹ new_s…² new_s…³ new_s…⁴ new_s…⁵ new_s…⁶
   <chr>       <chr> <chr> <dbl>   <dbl>   <dbl>   <dbl>   <dbl>   <dbl>   <dbl>
 1 Afghanistan AF    AFG    1980      NA      NA      NA      NA      NA      NA
 2 Afghanistan AF    AFG    1981      NA      NA      NA      NA      NA      NA
 3 Afghanistan AF    AFG    1982      NA      NA      NA      NA      NA      NA
 4 Afghanistan AF    AFG    1983      NA      NA      NA      NA      NA      NA
 5 Afghanistan AF    AFG    1984      NA      NA      NA      NA      NA      NA
 6 Afghanistan AF    AFG    1985      NA      NA      NA      NA      NA      NA
 7 Afghanistan AF    AFG    1986      NA      NA      NA      NA      NA      NA
 8 Afghanistan AF    AFG    1987      NA      NA      NA      NA      NA      NA
 9 Afghanistan AF    AFG    1988      NA      NA      NA      NA      NA      NA
10 Afghanistan AF    AFG    1989      NA      NA      NA      NA      NA      NA
# … with 7,230 more rows, 50 more variables: new_sp_m65 <dbl>,
#   new_sp_f014 <dbl>, new_sp_f1524 <dbl>, new_sp_f2534 <dbl>,
#   new_sp_f3544 <dbl>, new_sp_f4554 <dbl>, new_sp_f5564 <dbl>,
#   new_sp_f65 <dbl>, new_sn_m014 <dbl>, new_sn_m1524 <dbl>,
#   new_sn_m2534 <dbl>, new_sn_m3544 <dbl>, new_sn_m4554 <dbl>,
#   new_sn_m5564 <dbl>, new_sn_m65 <dbl>, new_sn_f014 <dbl>,
#   new_sn_f1524 <dbl>, new_sn_f2534 <dbl>, new_sn_f3544 <dbl>, …
```
…
who %>%
* pivot_longer(
* cols = new_sp_m014:newrel_f65,
* names_to = c("diagnosis", "gender", "age"),
* names_pattern = "new_?(.*)_(.)(.*)",
* values_to = "count"
*) 
```
]
 
.panel2-anscombe-auto[

```
# A tibble: 405,440 × 8
   country     iso2  iso3   year diagnosis gender age   count
   <chr>       <chr> <chr> <dbl> <chr>     <chr>  <chr> <dbl>
 1 Afghanistan AF    AFG    1980 sp        m      014      NA
 2 Afghanistan AF    AFG    1980 sp        m      1524     NA
 3 Afghanistan AF    AFG    1980 sp        m      2534     NA
 4 Afghanistan AF    AFG    1980 sp        m      3544     NA
 5 Afghanistan AF    AFG    1980 sp        m      4554     NA
 6 Afghanistan AF    AFG    1980 sp        m      5564     NA
 7 Afghanistan AF    AFG    1980 sp        m      65       NA
 8 Afghanistan AF    AFG    1980 sp        f      014      NA
 9 Afghanistan AF    AFG    1980 sp        f      1524     NA
10 Afghanistan AF    AFG    1980 sp        f      2534     NA
# … with 405,430 more rows
```
…
.panel1-tsibble-auto[

```r
bernoulli_trial(prob = .5) %>%
  add_trials() %>%
  add_trials() %>%
* to_tsibble()
```
]
 
.panel2-tsibble-auto[

```
# A tibble: 24 × 4
   history trial outcome  prob
     <int> <chr>   <dbl> <dbl>
 1       1 t1          0   0.5
 2       1 t2          0   0.5
 3       1 t3          0   0.5
 4       2 t1          0   0.5
 5       2 t2          0   0.5
 6       2 t3          1   0.5
 7       3 t1          0   0.5
 8       3 t2          1   0.5
 9       3 t3          0   0.5
10       4 t1          0   0.5
# … with 14 more rows
```
…
.panel1-tsibble-auto[

```r
bernoulli_trial(prob = .5) %>%
  add_trials() %>%
  add_trials() %>%
  to_tsibble()  %>%
* group_by(history)
```
]
 
.panel2-tsibble-auto[

```
# A tibble: 24 × 4
# Groups:   history [8]
   history trial outcome  prob
     <int> <chr>   <dbl> <dbl>
 1       1 t1          0   0.5
 2       1 t2          0   0.5
 3       1 t3          0   0.5
 4       2 t1          0   0.5
 5       2 t2          0   0.5
 6       2 t3          1   0.5
 7       3 t1          0   0.5
 8       3 t2          1   0.5
 9       3 t3          0   0.5
10       4 t1          0   0.5
# … with 14 more rows
```
…
