The art of flipbooking
…
dat %>% 
  activate(edges) %>% 
  as_tibble() ->
dat_edges

dat_edges %>% 
  right_join(
    dat_node  %>% 
  mutate(from = id))
```
]
.pull-right[

```
# A tibble: 86 × 5
    from    to    id leader betweenness
   <int> <int> <int> <fct>        <dbl>
 1     1     2     1 Mr. Hi        231.
 2     1     3     1 Mr. Hi        231.
 3     1     4     1 Mr. Hi        231.
 4     1     5     1 Mr. Hi        231.
 5     1     6     1 Mr. Hi        231.
 6     1     7     1 Mr. Hi        231.
 7     1     8     1 Mr. Hi        231.
 8     1     9     1 Mr. Hi        231.
 9     1    11     1 Mr. Hi        231.
10     1    12     1 Mr. Hi        231.
# … with 76 more rows
```
…
