return to dim red after a while
…
for (i in 1:nrow(data)){
  
  data$features[[i]] <- features_df |> slice(i)
  
}             

data |> as_tibble()

}

iris |> 
  declare_features(Sepal.Length:Petal.Length, Petal.Width) 

## # A tibble: 150 × 6
##    Sepal.Length Sepal.Width Petal.Length Petal.Width Species features    
##           <dbl>       <dbl>        <dbl>       <dbl> <fct>   <list>      
##  1          5.1         3.5          1.4         0.2 setosa  <df [1 × 4]>
##  2          4.9         3            1.4         0.2 setosa  <df [1 × 4]>
##  3          4.7         3.2          1.3         0.2 setosa  <df [1 × 4]>
##  4          4.6         3.1          1.5         0.2 setosa  <df [1 × 4]>
##  5          5           3.6          1.4         0.2 setosa  <df [1 × 4]>
##  6          5.4         3.9          1.7         0.4 setosa  <df [1 × 4]>
##  7          4.6         3.4          1.4         0.3 setosa  <df [1 × 4]>
##  8          5           3.4          1.5         0.2 setosa  <df [1 × 4]>
##  9          4.4         2.9          1.4         0.2 setosa  <df [1 × 4]>
## 10          4.9         3.1          1.5         0.1 setosa  <df [1 × 4]>
## # ℹ 140 more rows
…
  pca_ed |> 
    bind_cols(data)
  
}

iris |> 
  declare_features(Sepal.Length:Petal.Length, Petal.Width) |> 
  select(features) |>
  compute_panel_pca() 

## # A tibble: 150 × 5
##      PC1     PC2     PC3      PC4 features    
##    <dbl>   <dbl>   <dbl>    <dbl> <list>      
##  1 -2.26 -0.478   0.127   0.0241  <df [1 × 4]>
##  2 -2.07  0.672   0.234   0.103   <df [1 × 4]>
##  3 -2.36  0.341  -0.0441  0.0283  <df [1 × 4]>
##  4 -2.29  0.595  -0.0910 -0.0657  <df [1 × 4]>
##  5 -2.38 -0.645  -0.0157 -0.0358  <df [1 × 4]>
##  6 -2.07 -1.48   -0.0269  0.00659 <df [1 × 4]>
##  7 -2.44 -0.0475 -0.334  -0.0367  <df [1 × 4]>
##  8 -2.23 -0.222   0.0884 -0.0245  <df [1 × 4]>
##  9 -2.33  1.11   -0.145  -0.0268  <df [1 × 4]>
## 10 -2.18  0.467   0.253  -0.0398  <df [1 × 4]>
## # ℹ 140 more rows
…
