bikes-box
…
---
count: false

.panel1-the_chunk-auto[

``` r
library(dsbox)
*dcbikeshare
```
]
 
.panel2-the_chunk-auto[

```
# A tibble: 731 × 16
   instant dteday     season    yr  mnth holiday weekday workingday weathersit
     <dbl> <date>      <dbl> <dbl> <dbl>   <dbl>   <dbl>      <dbl>      <dbl>
 1       1 2011-01-01      1     0     1       0       6          0          2
 2       2 2011-01-02      1     0     1       0       0          0          2
 3       3 2011-01-03      1     0     1       0       1          1          1
 4       4 2011-01-04      1     0     1       0       2          1          1
 5       5 2011-01-05      1     0     1       0       3          1          1
 6       6 2011-01-06      1     0     1       0       4          1          1
 7       7 2011-01-07      1     0     1       0       5          1          2
 8       8 2011-01-08      1     0     1       0       6          0          2
 9       9 2011-01-09      1     0     1       0       0          0          1
10      10 2011-01-10      1     0     1       0       1          1          1
# ℹ 721 more rows
# ℹ 7 more variables: temp <dbl>, atemp <dbl>, hum <dbl>, windspeed <dbl>,
#   casual <dbl>, registered <dbl>, cnt <dbl>
```
…
.panel1-the_chunk-auto[

``` r
library(dsbox)
dcbikeshare %>%
* mutate(atemp_raw = atemp * 50)
```
]
 
.panel2-the_chunk-auto[

```
# A tibble: 731 × 17
   instant dteday     season    yr  mnth holiday weekday workingday weathersit
     <dbl> <date>      <dbl> <dbl> <dbl>   <dbl>   <dbl>      <dbl>      <dbl>
 1       1 2011-01-01      1     0     1       0       6          0          2
 2       2 2011-01-02      1     0     1       0       0          0          2
 3       3 2011-01-03      1     0     1       0       1          1          1
 4       4 2011-01-04      1     0     1       0       2          1          1
 5       5 2011-01-05      1     0     1       0       3          1          1
 6       6 2011-01-06      1     0     1       0       4          1          1
 7       7 2011-01-07      1     0     1       0       5          1          2
 8       8 2011-01-08      1     0     1       0       6          0          2
 9       9 2011-01-09      1     0     1       0       0          0          1
10      10 2011-01-10      1     0     1       0       1          1          1
# ℹ 721 more rows
# ℹ 8 more variables: temp <dbl>, atemp <dbl>, hum <dbl>, windspeed <dbl>,
#   casual <dbl>, registered <dbl>, cnt <dbl>, atemp_raw <dbl>
```
…
