1. Snappy Title: Predictive Power and the Palmer Penguins
…
---

## 6. Snapshot of the variables of interest...

```r
palmerpenguins::penguins %>%
  select(bill_length_mm,
         bill_depth_mm,
         species,
         sex)
```

```
# A tibble: 344 × 4
   bill_length_mm bill_depth_mm species sex   
            <dbl>         <dbl> <fct>   <fct> 
 1           39.1          18.7 Adelie  male  
 2           39.5          17.4 Adelie  female
 3           40.3          18   Adelie  female
 4           NA            NA   Adelie  <NA>  
 5           36.7          19.3 Adelie  female
 6           39.3          20.6 Adelie  male  
 7           38.9          17.8 Adelie  female
 8           39.2          19.6 Adelie  male  
 9           34.1          18.1 Adelie  <NA>  
10           42            20.2 Adelie  <NA>  
# … with 334 more rows
```
…
