1. Snappy Title: Predictive Power and the Palmer Penguins
…
---

count: false

.panel1-spot-auto[

```r
*spotify_songs
```
]
 
.panel2-spot-auto[

```
# A tibble: 32,833 × 23
   track_id              track_name track_artist track_popularity track_album_id
   <chr>                 <chr>      <chr>                   <dbl> <chr>         
 1 6f807x0ima9a1j3VPbc7… I Don't C… Ed Sheeran                 66 2oCs0DGTsRO98…
 2 0r7CVbZTWZgbTCYdfa2P… Memories … Maroon 5                   67 63rPSO264uRjW…
 3 1z1Hg7Vb0AhHDiEmnDE7… All the T… Zara Larsson               70 1HoSmj2eLcsrR…
 4 75FpbthrwQmzHlBJLuGd… Call You … The Chainsm…               60 1nqYsOef1yKKu…
 5 1e8PAfcKUYoKkxPhrHqw… Someone Y… Lewis Capal…               69 7m7vv9wlQ4i0L…
 6 7fvUMiyapMsRRxr07cU8… Beautiful… Ed Sheeran                 67 2yiy9cd2QktrN…
 7 2OAylPUDDfwRGfe0lYql… Never Rea… Katy Perry                 62 7INHYSeusaFly…
 8 6b1RNvAcJjQH73eZO4BL… Post Malo… Sam Feldt                  69 6703SRPsLkS4b…
 9 7bF6tCO3gFb8INrEDcjN… Tough Lov… Avicii                     68 7CvAfGvq4RlIw…
10 1IXGILkPm0tOCNeq00kC… If I Can'… Shawn Mendes               67 4QxzbfSsVryEQ…
# … with 32,823 more rows, and 18 more variables: track_album_name <chr>,
#   track_album_release_date <chr>, playlist_name <chr>, playlist_id <chr>,
#   playlist_genre <chr>, playlist_subgenre <chr>, danceability <dbl>,
#   energy <dbl>, key <dbl>, loudness <dbl>, mode <dbl>, speechiness <dbl>,
#   acousticness <dbl>, instrumentalness <dbl>, liveness <dbl>, valence <dbl>,
#   tempo <dbl>, duration_ms <dbl>
```
…
---
count: false

.panel1-spot-auto[

```r
spotify_songs %>%
* filter(track_popularity > 0)
```
]
 
.panel2-spot-auto[

```
# A tibble: 30,130 × 23
   track_id              track_name track_artist track_popularity track_album_id
   <chr>                 <chr>      <chr>                   <dbl> <chr>         
 1 6f807x0ima9a1j3VPbc7… I Don't C… Ed Sheeran                 66 2oCs0DGTsRO98…
 2 0r7CVbZTWZgbTCYdfa2P… Memories … Maroon 5                   67 63rPSO264uRjW…
 3 1z1Hg7Vb0AhHDiEmnDE7… All the T… Zara Larsson               70 1HoSmj2eLcsrR…
 4 75FpbthrwQmzHlBJLuGd… Call You … The Chainsm…               60 1nqYsOef1yKKu…
 5 1e8PAfcKUYoKkxPhrHqw… Someone Y… Lewis Capal…               69 7m7vv9wlQ4i0L…
 6 7fvUMiyapMsRRxr07cU8… Beautiful… Ed Sheeran                 67 2yiy9cd2QktrN…
 7 2OAylPUDDfwRGfe0lYql… Never Rea… Katy Perry                 62 7INHYSeusaFly…
 8 6b1RNvAcJjQH73eZO4BL… Post Malo… Sam Feldt                  69 6703SRPsLkS4b…
 9 7bF6tCO3gFb8INrEDcjN… Tough Lov… Avicii                     68 7CvAfGvq4RlIw…
10 1IXGILkPm0tOCNeq00kC… If I Can'… Shawn Mendes               67 4QxzbfSsVryEQ…
# … with 30,120 more rows, and 18 more variables: track_album_name <chr>,
#   track_album_release_date <chr>, playlist_name <chr>, playlist_id <chr>,
#   playlist_genre <chr>, playlist_subgenre <chr>, danceability <dbl>,
#   energy <dbl>, key <dbl>, loudness <dbl>, mode <dbl>, speechiness <dbl>,
#   acousticness <dbl>, instrumentalness <dbl>, liveness <dbl>, valence <dbl>,
#   tempo <dbl>, duration_ms <dbl>
```
…
.panel1-spot-auto[

```r
spotify_songs %>%
  filter(track_popularity > 0) %>%
* mutate(latin = case_when(playlist_genre == "latin" ~ "Latin",
*                              TRUE ~"not Latin"))
```
]
 
.panel2-spot-auto[

```
# A tibble: 30,130 × 24
   track_id              track_name track_artist track_popularity track_album_id
   <chr>                 <chr>      <chr>                   <dbl> <chr>         
 1 6f807x0ima9a1j3VPbc7… I Don't C… Ed Sheeran                 66 2oCs0DGTsRO98…
 2 0r7CVbZTWZgbTCYdfa2P… Memories … Maroon 5                   67 63rPSO264uRjW…
 3 1z1Hg7Vb0AhHDiEmnDE7… All the T… Zara Larsson               70 1HoSmj2eLcsrR…
 4 75FpbthrwQmzHlBJLuGd… Call You … The Chainsm…               60 1nqYsOef1yKKu…
 5 1e8PAfcKUYoKkxPhrHqw… Someone Y… Lewis Capal…               69 7m7vv9wlQ4i0L…
 6 7fvUMiyapMsRRxr07cU8… Beautiful… Ed Sheeran                 67 2yiy9cd2QktrN…
 7 2OAylPUDDfwRGfe0lYql… Never Rea… Katy Perry                 62 7INHYSeusaFly…
 8 6b1RNvAcJjQH73eZO4BL… Post Malo… Sam Feldt                  69 6703SRPsLkS4b…
 9 7bF6tCO3gFb8INrEDcjN… Tough Lov… Avicii                     68 7CvAfGvq4RlIw…
10 1IXGILkPm0tOCNeq00kC… If I Can'… Shawn Mendes               67 4QxzbfSsVryEQ…
# … with 30,120 more rows, and 19 more variables: track_album_name <chr>,
#   track_album_release_date <chr>, playlist_name <chr>, playlist_id <chr>,
#   playlist_genre <chr>, playlist_subgenre <chr>, danceability <dbl>,
#   energy <dbl>, key <dbl>, loudness <dbl>, mode <dbl>, speechiness <dbl>,
#   acousticness <dbl>, instrumentalness <dbl>, liveness <dbl>, valence <dbl>,
#   tempo <dbl>, duration_ms <dbl>, latin <chr>
```
…
.panel1-spot-auto[

```r
spotify_songs %>%
  filter(track_popularity > 0) %>%
  mutate(latin = case_when(playlist_genre == "latin" ~ "Latin",
                               TRUE ~"not Latin")) %>%
* mutate(latin = fct_rev(latin))
```
]
 
.panel2-spot-auto[

```
# A tibble: 30,130 × 24
   track_id              track_name track_artist track_popularity track_album_id
   <chr>                 <chr>      <chr>                   <dbl> <chr>         
 1 6f807x0ima9a1j3VPbc7… I Don't C… Ed Sheeran                 66 2oCs0DGTsRO98…
 2 0r7CVbZTWZgbTCYdfa2P… Memories … Maroon 5                   67 63rPSO264uRjW…
 3 1z1Hg7Vb0AhHDiEmnDE7… All the T… Zara Larsson               70 1HoSmj2eLcsrR…
 4 75FpbthrwQmzHlBJLuGd… Call You … The Chainsm…               60 1nqYsOef1yKKu…
 5 1e8PAfcKUYoKkxPhrHqw… Someone Y… Lewis Capal…               69 7m7vv9wlQ4i0L…
 6 7fvUMiyapMsRRxr07cU8… Beautiful… Ed Sheeran                 67 2yiy9cd2QktrN…
 7 2OAylPUDDfwRGfe0lYql… Never Rea… Katy Perry                 62 7INHYSeusaFly…
 8 6b1RNvAcJjQH73eZO4BL… Post Malo… Sam Feldt                  69 6703SRPsLkS4b…
 9 7bF6tCO3gFb8INrEDcjN… Tough Lov… Avicii                     68 7CvAfGvq4RlIw…
10 1IXGILkPm0tOCNeq00kC… If I Can'… Shawn Mendes               67 4QxzbfSsVryEQ…
# … with 30,120 more rows, and 19 more variables: track_album_name <chr>,
#   track_album_release_date <chr>, playlist_name <chr>, playlist_id <chr>,
#   playlist_genre <chr>, playlist_subgenre <chr>, danceability <dbl>,
#   energy <dbl>, key <dbl>, loudness <dbl>, mode <dbl>, speechiness <dbl>,
#   acousticness <dbl>, instrumentalness <dbl>, liveness <dbl>, valence <dbl>,
#   tempo <dbl>, duration_ms <dbl>, latin <fct>
```
…
set.seed(12345)
*prep
```
]
 
.panel2-spot-auto[

```
# A tibble: 30,130 × 24
   track_id              track_name track_artist track_popularity track_album_id
   <chr>                 <chr>      <chr>                   <dbl> <chr>         
 1 6f807x0ima9a1j3VPbc7… I Don't C… Ed Sheeran                 66 2oCs0DGTsRO98…
 2 0r7CVbZTWZgbTCYdfa2P… Memories … Maroon 5                   67 63rPSO264uRjW…
 3 1z1Hg7Vb0AhHDiEmnDE7… All the T… Zara Larsson               70 1HoSmj2eLcsrR…
 4 75FpbthrwQmzHlBJLuGd… Call You … The Chainsm…               60 1nqYsOef1yKKu…
 5 1e8PAfcKUYoKkxPhrHqw… Someone Y… Lewis Capal…               69 7m7vv9wlQ4i0L…
 6 7fvUMiyapMsRRxr07cU8… Beautiful… Ed Sheeran                 67 2yiy9cd2QktrN…
 7 2OAylPUDDfwRGfe0lYql… Never Rea… Katy Perry                 62 7INHYSeusaFly…
 8 6b1RNvAcJjQH73eZO4BL… Post Malo… Sam Feldt                  69 6703SRPsLkS4b…
 9 7bF6tCO3gFb8INrEDcjN… Tough Lov… Avicii                     68 7CvAfGvq4RlIw…
10 1IXGILkPm0tOCNeq00kC… If I Can'… Shawn Mendes               67 4QxzbfSsVryEQ…
# … with 30,120 more rows, and 19 more variables: track_album_name <chr>,
#   track_album_release_date <chr>, playlist_name <chr>, playlist_id <chr>,
#   playlist_genre <chr>, playlist_subgenre <chr>, danceability <dbl>,
#   energy <dbl>, key <dbl>, loudness <dbl>, mode <dbl>, speechiness <dbl>,
#   acousticness <dbl>, instrumentalness <dbl>, liveness <dbl>, valence <dbl>,
#   tempo <dbl>, duration_ms <dbl>, latin <fct>
```
…
