Everyday ggplot2 extension
…
.panel1-bump-auto[

``` r
library(tidyverse)
library(ggbump)

*us_cohort_life_exp_rank_2020
```
]
 
.panel2-bump-auto[

```
# A tibble: 60 × 7
   country continent  year lifeExp      pop gdpPercap life_exp_rank
   <fct>   <fct>     <int>   <dbl>    <int>     <dbl>         <dbl>
 1 Canada  Americas   1952    68.8 14785584    11367.             2
 2 Canada  Americas   1957    70.0 17010154    12490.             2
 3 Canada  Americas   1962    71.3 18985849    13462.             1
 4 Canada  Americas   1967    72.1 20819767    16077.             1
 5 Canada  Americas   1972    72.9 22284500    18971.             1
 6 Canada  Americas   1977    74.2 23796400    22091.             1
 7 Canada  Americas   1982    75.8 25201900    22899.             1
 8 Canada  Americas   1987    76.9 26549700    26627.             1
 9 Canada  Americas   1992    78.0 28523502    26343.             1
10 Canada  Americas   1997    78.6 30305843    28955.             2
# ℹ 50 more rows
```
…
