swim
…
---

count: false

.panel1-the_chunk2-auto[

``` r
*patient_data
```
]
 
.panel2-the_chunk2-auto[

```
# A tibble: 53 × 4
   pt_id disease_assessment       start_time end_time
   <chr> <chr>                         <dbl>    <dbl>
 1 01    CR/CRi + B Cell Recovery       -2.8      0  
 2 01    RD                              0        0.9
 3 01    CR/CRi + B Cell Aplasia         0.9      1.8
 4 01    CR/CRi + B Cell Recovery        1.8      2  
 5 02    RD                             -2.8      0  
 6 02    CRi                             0        0.2
 7 03    CR/CRi + B Cell Recovery       -2.4      0  
 8 03    CR/CRi + B Cell Recovery        0        0.9
 9 03    CR/CRi + B Cell Aplasia         0.9      2.8
10 03    CR/CRi + B Cell Aplasia         2.8      6.2
# ℹ 43 more rows
```
…
``` r
patient_data |>
* dplyr::left_join(
*   end_study_events |>
*     dplyr::select(pt_id, end_study_name),
*   by = "pt_id"
* )
```
]
 
.panel2-the_chunk2-auto[

```
# A tibble: 53 × 5
   pt_id disease_assessment       start_time end_time end_study_name           
   <chr> <chr>                         <dbl>    <dbl> <chr>                    
 1 01    CR/CRi + B Cell Recovery       -2.8      0   Other End Study Reason   
 2 01    RD                              0        0.9 Other End Study Reason   
 3 01    CR/CRi + B Cell Aplasia         0.9      1.8 Other End Study Reason   
 4 01    CR/CRi + B Cell Recovery        1.8      2   Other End Study Reason   
 5 02    RD                             -2.8      0   Deceased                 
 6 02    CRi                             0        0.2 Deceased                 
 7 03    CR/CRi + B Cell Recovery       -2.4      0   Completed Study Follow-Up
 8 03    CR/CRi + B Cell Recovery        0        0.9 Completed Study Follow-Up
 9 03    CR/CRi + B Cell Aplasia         0.9      2.8 Completed Study Follow-Up
10 03    CR/CRi + B Cell Aplasia         2.8      6.2 Completed Study Follow-Up
# ℹ 43 more rows
```
…
``` r
patient_data |>
  dplyr::left_join(
    end_study_events |>
      dplyr::select(pt_id, end_study_name),
    by = "pt_id"
  ) |>
* dplyr::select(pt_id, end_time, end_study_name)
```
]
 
.panel2-the_chunk2-auto[

```
# A tibble: 53 × 3
   pt_id end_time end_study_name           
   <chr>    <dbl> <chr>                    
 1 01         0   Other End Study Reason   
 2 01         0.9 Other End Study Reason   
 3 01         1.8 Other End Study Reason   
 4 01         2   Other End Study Reason   
 5 02         0   Deceased                 
 6 02         0.2 Deceased                 
 7 03         0   Completed Study Follow-Up
 8 03         0.9 Completed Study Follow-Up
 9 03         2.8 Completed Study Follow-Up
10 03         6.2 Completed Study Follow-Up
# ℹ 43 more rows
```
…
