StatTable: flexible, step-by-step, declarative table creation using ggplot2
…
``` r
Titanic %>%
  data.frame() %>%
  uncount(Freq) ->
tidy_titanic

tidy_titanic %>%
* group_by(Sex, Survived)   # cross tab def
```
]
 
.panel2-base-auto[

```
# A tibble: 2,201 × 4
# Groups:   Sex, Survived [4]
   Class Sex   Age   Survived
   <fct> <fct> <fct> <fct>   
 1 3rd   Male  Child No      
 2 3rd   Male  Child No      
 3 3rd   Male  Child No      
 4 3rd   Male  Child No      
 5 3rd   Male  Child No      
 6 3rd   Male  Child No      
 7 3rd   Male  Child No      
 8 3rd   Male  Child No      
 9 3rd   Male  Child No      
10 3rd   Male  Child No      
# ℹ 2,191 more rows
```
…
