Spring 2026 Slides
…
.panel1-usmapdata0-auto[

``` r
library(ggplot2)

*us_income
```
]
 
.panel2-usmapdata0-auto[

```
# A tibble: 52 × 5
   GEOID NAME                 variable income   moe
   <chr> <chr>                <chr>     <dbl> <dbl>
 1 01    Alabama              income    24476   136
 2 02    Alaska               income    32940   508
 3 04    Arizona              income    27517   148
 4 05    Arkansas             income    23789   165
 5 06    California           income    29454   109
 6 08    Colorado             income    32401   109
 7 09    Connecticut          income    35326   195
 8 10    Delaware             income    31560   247
 9 11    District of Columbia income    43198   681
10 12    Florida              income    25952    70
# ℹ 42 more rows
```
…
.panel1-usmapdata-auto[

``` r
library(ggplot2)
library(usmapdata)

*us_income
```
]
 
.panel2-usmapdata-auto[

```
# A tibble: 52 × 5
   GEOID NAME                 variable income   moe
   <chr> <chr>                <chr>     <dbl> <dbl>
 1 01    Alabama              income    24476   136
 2 02    Alaska               income    32940   508
 3 04    Arizona              income    27517   148
 4 05    Arkansas             income    23789   165
 5 06    California           income    29454   109
 6 08    Colorado             income    32401   109
 7 09    Connecticut          income    35326   195
 8 10    Delaware             income    31560   247
 9 11    District of Columbia income    43198   681
10 12    Florida              income    25952    70
# ℹ 42 more rows
```
…
count: false
 
### yields user-friendly API
.panel1-arcade-auto[

``` r
*caries_ratios
```
]
 
.panel2-arcade-auto[

```
# A tibble: 32 × 4
   tooth     n count  ratio
   <chr> <int> <dbl>  <dbl>
 1 URI1     35     4 0.114 
 2 URI2     31     4 0.129 
 3 URC1     35     7 0.2   
 4 URP1     34     3 0.0882
 5 URP2     23     5 0.217 
 6 URM1     32     7 0.219 
 7 URM2     25     7 0.28  
 8 URM3     22     9 0.409 
 9 ULI1     28     2 0.0714
10 ULI2     26     2 0.0769
# ℹ 22 more rows
```
…
