Speaking ggplot2
…
# DEMO PREP, PROVIDED
.panel1-dataprep-auto[

```r
library(tidyverse)
library(gapminder)

*gapminder   # data from package
```
]
 
.panel2-dataprep-auto[

```
# A tibble: 1,704 × 6
   country     continent  year lifeExp      pop gdpPercap
   <fct>       <fct>     <int>   <dbl>    <int>     <dbl>
 1 Afghanistan Asia       1952    28.8  8425333      779.
 2 Afghanistan Asia       1957    30.3  9240934      821.
 3 Afghanistan Asia       1962    32.0 10267083      853.
 4 Afghanistan Asia       1967    34.0 11537966      836.
 5 Afghanistan Asia       1972    36.1 13079460      740.
 6 Afghanistan Asia       1977    38.4 14880372      786.
 7 Afghanistan Asia       1982    39.9 12881816      978.
 8 Afghanistan Asia       1987    40.8 13867957      852.
 9 Afghanistan Asia       1992    41.7 16317921      649.
10 Afghanistan Asia       1997    41.8 22227415      635.
# … with 1,694 more rows
```
…
```r
library(tidyverse)
library(gapminder)

gapminder %>%  # data from package
* filter(year == 2002)   # filtering
```
]
 
.panel2-dataprep-auto[

```
# A tibble: 142 × 6
   country     continent  year lifeExp       pop gdpPercap
   <fct>       <fct>     <int>   <dbl>     <int>     <dbl>
 1 Afghanistan Asia       2002    42.1  25268405      727.
 2 Albania     Europe     2002    75.7   3508512     4604.
 3 Algeria     Africa     2002    71.0  31287142     5288.
 4 Angola      Africa     2002    41.0  10866106     2773.
 5 Argentina   Americas   2002    74.3  38331121     8798.
 6 Australia   Oceania    2002    80.4  19546792    30688.
 7 Austria     Europe     2002    79.0   8148312    32418.
 8 Bahrain     Asia       2002    74.8    656397    23404.
 9 Bangladesh  Asia       2002    62.0 135656790     1136.
10 Belgium     Europe     2002    78.3  10311970    30486.
# … with 132 more rows
```
…
gapminder %>%  # data from package
  filter(year == 2002) ->  # filtering
gapminder_2002  # saving subset object

*gapminder_2002
```
]
 
.panel2-dataprep-auto[

```
# A tibble: 142 × 6
   country     continent  year lifeExp       pop gdpPercap
   <fct>       <fct>     <int>   <dbl>     <int>     <dbl>
 1 Afghanistan Asia       2002    42.1  25268405      727.
 2 Albania     Europe     2002    75.7   3508512     4604.
 3 Algeria     Africa     2002    71.0  31287142     5288.
 4 Angola      Africa     2002    41.0  10866106     2773.
 5 Argentina   Americas   2002    74.3  38331121     8798.
 6 Australia   Oceania    2002    80.4  19546792    30688.
 7 Austria     Europe     2002    79.0   8148312    32418.
 8 Bahrain     Asia       2002    74.8    656397    23404.
 9 Bangladesh  Asia       2002    62.0 135656790     1136.
10 Belgium     Europe     2002    78.3  10311970    30486.
# … with 132 more rows
```
…
gapminder %>%  # data from package
  filter(year == 2002) ->  # filtering
gapminder_2002  # saving subset object

gapminder_2002 %>%
* filter(continent == "Europe")
```
]
 
.panel2-dataprep-auto[

```
# A tibble: 30 × 6
   country                continent  year lifeExp      pop gdpPercap
   <fct>                  <fct>     <int>   <dbl>    <int>     <dbl>
 1 Albania                Europe     2002    75.7  3508512     4604.
 2 Austria                Europe     2002    79.0  8148312    32418.
 3 Belgium                Europe     2002    78.3 10311970    30486.
 4 Bosnia and Herzegovina Europe     2002    74.1  4165416     6019.
 5 Bulgaria               Europe     2002    72.1  7661799     7697.
 6 Croatia                Europe     2002    74.9  4481020    11628.
 7 Czech Republic         Europe     2002    75.5 10256295    17596.
 8 Denmark                Europe     2002    77.2  5374693    32167.
 9 Finland                Europe     2002    78.4  5193039    28205.
10 France                 Europe     2002    79.6 59925035    28926.
# … with 20 more rows
```
…
gapminder_2002 %>%
  filter(continent == "Europe") ->
gapminder_2002_europe

*gapminder
```
]
 
.panel2-dataprep-auto[

```
# A tibble: 1,704 × 6
   country     continent  year lifeExp      pop gdpPercap
   <fct>       <fct>     <int>   <dbl>    <int>     <dbl>
 1 Afghanistan Asia       1952    28.8  8425333      779.
 2 Afghanistan Asia       1957    30.3  9240934      821.
 3 Afghanistan Asia       1962    32.0 10267083      853.
 4 Afghanistan Asia       1967    34.0 11537966      836.
 5 Afghanistan Asia       1972    36.1 13079460      740.
 6 Afghanistan Asia       1977    38.4 14880372      786.
 7 Afghanistan Asia       1982    39.9 12881816      978.
 8 Afghanistan Asia       1987    40.8 13867957      852.
 9 Afghanistan Asia       1992    41.7 16317921      649.
10 Afghanistan Asia       1997    41.8 22227415      635.
# … with 1,694 more rows
```
…
gapminder_2002 %>%
  filter(continent == "Europe") ->
gapminder_2002_europe

gapminder %>%
* select(country, continent)
```
]
 
.panel2-dataprep-auto[

```
# A tibble: 1,704 × 2
   country     continent
   <fct>       <fct>    
 1 Afghanistan Asia     
 2 Afghanistan Asia     
 3 Afghanistan Asia     
 4 Afghanistan Asia     
 5 Afghanistan Asia     
 6 Afghanistan Asia     
 7 Afghanistan Asia     
 8 Afghanistan Asia     
 9 Afghanistan Asia     
10 Afghanistan Asia     
# … with 1,694 more rows
```
…
gapminder_2002 %>%
  filter(continent == "Europe") ->
gapminder_2002_europe

gapminder %>%
  select(country, continent) %>%
* distinct()
```
]
 
.panel2-dataprep-auto[

```
# A tibble: 142 × 2
   country     continent
   <fct>       <fct>    
 1 Afghanistan Asia     
 2 Albania     Europe   
 3 Algeria     Africa   
 4 Angola      Africa   
 5 Argentina   Americas 
 6 Australia   Oceania  
 7 Austria     Europe   
 8 Bahrain     Asia     
 9 Bangladesh  Asia     
10 Belgium     Europe   
# … with 132 more rows
```
…
gapminder_2002 %>%
  filter(continent == "Europe") ->
gapminder_2002_europe

gapminder %>%
  select(country, continent) %>%
  distinct() %>%
* group_by(continent)
```
]
 
.panel2-dataprep-auto[

```
# A tibble: 142 × 2
# Groups:   continent [5]
   country     continent
   <fct>       <fct>    
 1 Afghanistan Asia     
 2 Albania     Europe   
 3 Algeria     Africa   
 4 Angola      Africa   
 5 Argentina   Americas 
 6 Australia   Oceania  
 7 Austria     Europe   
 8 Bahrain     Asia     
 9 Bangladesh  Asia     
10 Belgium     Europe   
# … with 132 more rows
```
…
count: false
 
## LIVE DEMO Time permitting, What's this plot called where area is gdp? It doesn't matter if we know or not, we can still imagine and build it
.panel1-custom-auto[

```r
*gapminder_2002_europe
```
]
 
.panel2-custom-auto[

```
# A tibble: 30 × 6
   country                continent  year lifeExp      pop gdpPercap
   <fct>                  <fct>     <int>   <dbl>    <int>     <dbl>
 1 Albania                Europe     2002    75.7  3508512     4604.
 2 Austria                Europe     2002    79.0  8148312    32418.
 3 Belgium                Europe     2002    78.3 10311970    30486.
 4 Bosnia and Herzegovina Europe     2002    74.1  4165416     6019.
 5 Bulgaria               Europe     2002    72.1  7661799     7697.
 6 Croatia                Europe     2002    74.9  4481020    11628.
 7 Czech Republic         Europe     2002    75.5 10256295    17596.
 8 Denmark                Europe     2002    77.2  5374693    32167.
 9 Finland                Europe     2002    78.4  5193039    28205.
10 France                 Europe     2002    79.6 59925035    28926.
# … with 20 more rows
```
…
