A minimal flipbook
…
---

count: false

.panel1-hi-auto[

```r
*palmerpenguins::penguins
```
]
 
.panel2-hi-auto[

```
# A tibble: 344 × 8
   species island    bill_length_mm bill_depth_mm flipper_length_mm body_mass_g
   <fct>   <fct>              <dbl>         <dbl>             <int>       <int>
 1 Adelie  Torgersen           39.1          18.7               181        3750
 2 Adelie  Torgersen           39.5          17.4               186        3800
 3 Adelie  Torgersen           40.3          18                 195        3250
 4 Adelie  Torgersen           NA            NA                  NA          NA
 5 Adelie  Torgersen           36.7          19.3               193        3450
 6 Adelie  Torgersen           39.3          20.6               190        3650
 7 Adelie  Torgersen           38.9          17.8               181        3625
 8 Adelie  Torgersen           39.2          19.6               195        4675
 9 Adelie  Torgersen           34.1          18.1               193        3475
10 Adelie  Torgersen           42            20.2               190        4250
# … with 334 more rows, and 2 more variables: sex <fct>, year <int>
```
…
ggtrace::ggtrace_inspect_args(
  x = my_plot,
* method = ggplot2:::Layer$compute_aesthetics
) %>% 
  .$data
```
]
 
.panel2-hi-replace[

```
# A tibble: 344 × 9
   species island    bill_length_mm bill_depth_mm flipper_length_mm body_mass_g
   <fct>   <fct>              <dbl>         <dbl>             <int>       <int>
 1 Adelie  Torgersen           39.1          18.7               181        3750
 2 Adelie  Torgersen           39.5          17.4               186        3800
 3 Adelie  Torgersen           40.3          18                 195        3250
 4 Adelie  Torgersen           NA            NA                  NA          NA
 5 Adelie  Torgersen           36.7          19.3               193        3450
 6 Adelie  Torgersen           39.3          20.6               190        3650
 7 Adelie  Torgersen           38.9          17.8               181        3625
 8 Adelie  Torgersen           39.2          19.6               195        4675
 9 Adelie  Torgersen           34.1          18.1               193        3475
10 Adelie  Torgersen           42            20.2               190        4250
# … with 334 more rows, and 3 more variables: sex <fct>, year <int>,
#   PANEL <fct>
```
…
library(lubridate)
OlsonNames() %>%
* tibble(tz = .)
```
]
 
.panel2-meet_times-auto[

```
[1] "2009-08-07 16:00:00 BST"
```

```
# A tibble: 593 × 1
   tz                
   <chr>             
 1 Africa/Abidjan    
 2 Africa/Accra      
 3 Africa/Addis_Ababa
 4 Africa/Algiers    
 5 Africa/Asmara     
 6 Africa/Asmera     
 7 Africa/Bamako     
 8 Africa/Bangui     
 9 Africa/Banjul     
10 Africa/Bissau     
# … with 583 more rows
```
…
library(lubridate)
OlsonNames() %>%
  tibble(tz = .) %>%
* filter(tz != "US/Pacific-New")
```
]
 
.panel2-meet_times-auto[

```
[1] "2009-08-07 16:00:00 BST"
```

```
# A tibble: 592 × 1
   tz                
   <chr>             
 1 Africa/Abidjan    
 2 Africa/Accra      
 3 Africa/Addis_Ababa
 4 Africa/Algiers    
 5 Africa/Asmara     
 6 Africa/Asmera     
 7 Africa/Bamako     
 8 Africa/Bangui     
 9 Africa/Banjul     
10 Africa/Bissau     
# … with 582 more rows
```
…
